......................
----------------------------------------------------------------------
Ran 22 tests in 0.801s

OK
Name             Stmts   Miss Branch BrPart  Cover   Missing
------------------------------------------------------------
Diplomacy.py          55      0     24      0   100%
TestDiplomacy.py      87      0      0      0   100%
------------------------------------------------------------
TOTAL              142      0     24      0   100%
