.......
----------------------------------------------------------------------
Ran 7 tests in 0.002s

OK
Name               Stmts   Miss Branch BrPart  Cover   Missing
--------------------------------------------------------------
Diplomacy.py          95      0     54      0   100%
TestDiplomacy.py      40      0      0      0   100%
--------------------------------------------------------------
TOTAL                135      0     54      0   100%