..........
----------------------------------------------------------------------
Ran 10 tests in 0.003s

OK
Name               Stmts   Miss Branch BrPart  Cover   Missing
--------------------------------------------------------------
Diplomacy.py          98      0     46      0   100%
TestDiplomacy.py     119      0      0      0   100%
--------------------------------------------------------------
TOTAL                217      0     46      0   100%
