.......
----------------------------------------------------------------------
Ran 7 tests in 0.001s

OK




Name               Stmts   Miss Branch BrPart  Cover   Missing
--------------------------------------------------------------
Diplomacy.py          76      0     38      0   100%
TestDiplomacy.py      36      0      0      0   100%
--------------------------------------------------------------
TOTAL                112      0     38      0   100%
