A TheNewRepublic
B Earth
C Venus
D Mercury
E AsteroidBelt
F [dead]
G Saturn
H Jupiter
I [dead]
J Neptune
K TheMoon
L InternationalSpaceStation
M Sputnik
N TheGalacticEmpire
O [dead]
P TheFirstOrder
Q TheRebelAlliance
R Mars
S TheGalacticRepublic
T TheResistance
